%!PS-Adobe-3.0 EPSF-3.0
%%DocumentNeededResources: font Helvetica
%%+ font Helvetica-Bold
%%+ font Helvetica-Oblique
%%+ font Helvetica-BoldOblique
%%+ font Symbol
%%Title: R Graphics Output
%%Creator: R Software
%%Pages: (atend)
%%BoundingBox: 0 0 504 504
%%EndComments
%%BeginProlog
/bp  { gs sRGB gs } def
% begin .ps.prolog
/gs  { gsave } bind def
/gr  { grestore } bind def
/ep  { showpage gr gr } bind def
/m   { moveto } bind def
/l  { rlineto } bind def
/np  { newpath } bind def
/cp  { closepath } bind def
/f   { fill } bind def
/o   { stroke } bind def
/c   { newpath 0 360 arc } bind def
/r   { 4 2 roll moveto 1 copy 3 -1 roll exch 0 exch rlineto 0 rlineto -1 mul 0 exch rlineto closepath } bind def
/p1  { stroke } bind def
/p2  { gsave bg fill grestore newpath } bind def
/p3  { gsave bg fill grestore stroke } bind def
/p6  { gsave bg eofill grestore newpath } bind def
/p7  { gsave bg eofill grestore stroke } bind def
/t   { 5 -2 roll moveto gsave rotate
       1 index stringwidth pop
       mul neg 0 rmoveto show grestore } bind def
/ta  { 4 -2 roll moveto gsave rotate show } bind def
/tb  { 2 -1 roll 0 rmoveto show } bind def
/cl  { grestore gsave newpath 3 index 3 index moveto 1 index
       4 -1 roll lineto  exch 1 index lineto lineto
       closepath clip newpath } bind def
/rgb { setrgbcolor } bind def
/s   { scalefont setfont } bind def
% end   .ps.prolog
/sRGB { [ /CIEBasedABC
          << /DecodeLMN
               [ { dup 0.03928 le
                        {12.92321 div}
                        {0.055 add 1.055 div 2.4 exp }
                     ifelse
                 } bind dup dup
               ]
             /MatrixLMN [0.412457 0.212673 0.019334
                         0.357576 0.715152 0.119192
                         0.180437 0.072175 0.950301]
             /WhitePoint [0.9505 1.0 1.0890]
           >>
         ] setcolorspace } bind def
/srgb { setcolor } bind def
% begin encoding
/WinAnsiEncoding [
 /.notdef /.notdef /.notdef /.notdef /.notdef /.notdef /.notdef /.notdef
 /.notdef /.notdef /.notdef /.notdef /.notdef /.notdef /.notdef /.notdef
 /.notdef /.notdef /.notdef /.notdef /.notdef /.notdef /.notdef /.notdef
 /.notdef /.notdef /.notdef /.notdef /.notdef /.notdef /.notdef /.notdef
 /space /exclam /quotedbl /numbersign /dollar /percent /ampersand /quoteright
 /parenleft /parenright /asterisk /plus /comma /minus /period /slash
 /zero /one /two /three /four /five /six /seven
 /eight /nine /colon /semicolon /less /equal /greater /question
 /at /A /B /C /D /E /F /G
 /H /I /J /K /L /M /N /O
 /P /Q /R /S /T /U /V /W
 /X /Y /Z /bracketleft /backslash /bracketright /asciicircum /underscore
 /grave /a /b /c /d /e /f /g
 /h /i /j /k /l /m /n /o
 /p /q /r /s /t /u /v /w
 /x /y /z /braceleft /bar /braceright /asciitilde /.notdef
 /Euro /.notdef /quotesinglbase /florin /quotedblbase /ellipsis /dagger /daggerdbl
 /circumflex /perthousand /Scaron /guilsinglleft /OE /.notdef /Zcaron /.notdef
 /.notdef /quoteleft /quoteright /quotedblleft /quotedblright /bullet /endash /emdash
 /tilde /trademark /scaron /guilsinglright /oe /.notdef /zcaron /Ydieresis
 /space /exclamdown /cent /sterling /currency /yen /brokenbar /section
 /dieresis /copyright /ordfeminine /guillemotleft /logicalnot /hyphen /registered /macron
 /degree /plusminus /twosuperior /threesuperior /acute /mu /paragraph /periodcentered
 /cedilla /onesuperior /ordmasculine /guillemotright /onequarter /onehalf /threequarters /questiondown
 /Agrave /Aacute /Acircumflex /Atilde /Adieresis /Aring /AE /Ccedilla
 /Egrave /Eacute /Ecircumflex /Edieresis /Igrave /Iacute /Icircumflex /Idieresis
 /Eth /Ntilde /Ograve /Oacute /Ocircumflex /Otilde /Odieresis /multiply
 /Oslash /Ugrave /Uacute /Ucircumflex /Udieresis /Yacute /Thorn /germandbls
 /agrave /aacute /acircumflex /atilde /adieresis /aring /ae /ccedilla
 /egrave /eacute /ecircumflex /edieresis /igrave /iacute /icircumflex /idieresis
 /eth /ntilde /ograve /oacute /ocircumflex /otilde /odieresis /divide
 /oslash /ugrave /uacute /ucircumflex /udieresis /yacute /thorn /ydieresis
]
 def
% end encoding
%%IncludeResource: font Helvetica
/Helvetica findfont
dup length dict begin
  {1 index /FID ne {def} {pop pop} ifelse} forall
  /Encoding WinAnsiEncoding def
  currentdict
  end
/Font1 exch definefont pop
%%IncludeResource: font Helvetica-Bold
/Helvetica-Bold findfont
dup length dict begin
  {1 index /FID ne {def} {pop pop} ifelse} forall
  /Encoding WinAnsiEncoding def
  currentdict
  end
/Font2 exch definefont pop
%%IncludeResource: font Helvetica-Oblique
/Helvetica-Oblique findfont
dup length dict begin
  {1 index /FID ne {def} {pop pop} ifelse} forall
  /Encoding WinAnsiEncoding def
  currentdict
  end
/Font3 exch definefont pop
%%IncludeResource: font Helvetica-BoldOblique
/Helvetica-BoldOblique findfont
dup length dict begin
  {1 index /FID ne {def} {pop pop} ifelse} forall
  /Encoding WinAnsiEncoding def
  currentdict
  end
/Font4 exch definefont pop
%%IncludeResource: font Symbol
/Symbol findfont
dup length dict begin
  {1 index /FID ne {def} {pop pop} ifelse} forall
  currentdict
  end
/Font5 exch definefont pop
%%EndProlog
%%Page: 1 1
bp
0.00 0.00 504.00 504.00 cl
0.00 0.00 504.00 504.00 cl
0.00 0.00 504.00 504.00 cl
0.00 0.00 504.00 504.00 cl
0.00 0.00 504.00 504.00 cl
0.00 0.00 504.00 504.00 cl
0.00 0.00 504.00 504.00 cl
0.00 0.00 504.00 504.00 cl
0.00 0.00 504.00 504.00 cl
0.00 0.00 504.00 504.00 cl
0.00 0.00 504.00 504.00 cl
0.00 0.00 504.00 504.00 cl
0.00 0.00 504.00 504.00 cl
0.00 0.00 504.00 504.00 cl
0.00 0.00 504.00 504.00 cl
0.00 0.00 504.00 504.00 cl
0.00 0.00 504.00 504.00 cl
0.00 144.38 504.00 359.62 cl
0.00 0.00 504.00 504.00 cl
141.18 322.95 498.52 354.14 cl
0.9216 0.9216 0.9216 srgb
0.53 setlinewidth
[] 0 setdash
0 setlinecap
1 setlinejoin
10.00 setmiterlimit
np
189.91 322.95 m
0 31.19 l
o
np
254.88 322.95 m
0 31.19 l
o
np
319.85 322.95 m
0 31.19 l
o
np
384.82 322.95 m
0 31.19 l
o
np
449.79 322.95 m
0 31.19 l
o
1.07 setlinewidth
[] 0 setdash
np
141.18 338.55 m
357.34 0 l
o
np
157.42 322.95 m
0 31.19 l
o
np
222.39 322.95 m
0 31.19 l
o
np
287.37 322.95 m
0 31.19 l
o
np
352.34 322.95 m
0 31.19 l
o
np
417.31 322.95 m
0 31.19 l
o
np
482.28 322.95 m
0 31.19 l
o
0 0 1 srgb
2.56 setlinewidth
[] 0 setdash
np
244.81 322.95 m
0 31.19 l
o
/bg { 0 0 0 srgb } def
0 0 0 srgb
0.71 setlinewidth
[] 0 setdash
1 setlinecap
250.66 331.70 1.95 c p3
246.11 347.30 1.95 c p3
299.71 337.58 1.95 c p3
234.09 337.12 1.95 c p3
231.49 343.57 1.95 c p3
265.60 339.86 1.95 c p3
250.33 337.05 1.95 c p3
242.86 334.83 1.95 c p3
269.17 339.39 1.95 c p3
216.22 341.92 1.95 c p3
210.70 340.46 1.95 c p3
219.15 330.61 1.95 c p3
276.65 337.07 1.95 c p3
258.13 338.87 1.95 c p3
242.54 346.48 1.95 c p3
240.91 330.92 1.95 c p3
262.03 337.09 1.95 c p3
269.50 335.55 1.95 c p3
212.00 343.85 1.95 c p3
251.96 340.22 1.95 c p3
220.45 342.94 1.95 c p3
235.71 345.43 1.95 c p3
290.61 336.18 1.95 c p3
337.07 338.04 1.95 c p3
326.67 338.39 1.95 c p3
221.42 345.02 1.95 c p3
157.42 338.55 1.95 c p3
173.34 338.65 1.95 c p3
234.74 340.59 1.95 c p3
220.77 340.88 1.95 c p3
204.85 338.81 1.95 c p3
157.42 337.04 1.95 c p3
202.25 338.12 1.95 c p3
286.07 336.59 1.95 c p3
233.76 341.66 1.95 c p3
226.62 337.80 1.95 c p3
228.89 331.26 1.95 c p3
317.25 339.62 1.95 c p3
214.27 334.50 1.95 c p3
234.41 346.33 1.95 c p3
222.07 331.57 1.95 c p3
224.67 333.74 1.95 c p3
266.57 343.76 1.95 c p3
246.11 329.49 1.95 c p3
221.09 336.73 1.95 c p3
272.10 341.09 1.95 c p3
202.90 341.75 1.95 c p3
248.71 332.39 1.95 c p3
259.43 342.36 1.95 c p3
175.62 338.23 1.95 c p3
261.70 340.66 1.95 c p3
270.15 343.15 1.95 c p3
250.33 345.74 1.95 c p3
240.91 341.31 1.95 c p3
309.13 338.69 1.95 c p3
157.42 340.05 1.95 c p3
268.85 345.68 1.95 c p3
267.22 341.83 1.95 c p3
253.58 334.29 1.95 c p3
219.80 334.68 1.95 c p3
272.10 337.55 1.95 c p3
290.94 337.79 1.95 c p3
265.28 332.23 1.95 c p3
242.21 336.11 1.95 c p3
271.45 333.89 1.95 c p3
239.29 338.71 1.95 c p3
256.50 331.71 1.95 c p3
251.96 336.11 1.95 c p3
254.88 338.20 1.95 c p3
282.49 338.48 1.95 c p3
266.57 334.06 1.95 c p3
266.25 336.01 1.95 c p3
239.29 333.57 1.95 c p3
218.50 346.15 1.95 c p3
242.54 329.65 1.95 c p3
263.98 344.48 1.95 c p3
279.89 340.84 1.95 c p3
285.74 338.58 1.95 c p3
407.24 338.39 1.95 c p3
327.00 339.70 1.95 c p3
246.43 339.31 1.95 c p3
313.35 338.02 1.95 c p3
288.99 340.34 1.95 c p3
291.26 340.84 1.95 c p3
268.85 331.65 1.95 c p3
232.46 332.84 1.95 c p3
258.45 335.38 1.95 c p3
273.40 340.11 1.95 c p3
267.87 337.94 1.95 c p3
228.89 339.30 1.95 c p3
290.61 339.37 1.95 c p3
278.59 342.22 1.95 c p3
372.15 338.57 1.95 c p3
254.88 345.67 1.95 c p3
278.59 335.97 1.95 c p3
234.41 331.34 1.95 c p3
272.10 344.63 1.95 c p3
284.12 334.41 1.95 c p3
260.40 333.62 1.95 c p3
217.85 338.05 1.95 c p3
254.55 341.96 1.95 c p3
249.36 341.49 1.95 c p3
211.67 337.34 1.95 c p3
203.55 334.92 1.95 c p3
220.45 332.60 1.95 c p3
235.71 333.46 1.95 c p3
195.76 337.61 1.95 c p3
246.76 334.47 1.95 c p3
219.47 338.80 1.95 c p3
239.94 343.88 1.95 c p3
319.85 337.48 1.95 c p3
247.08 344.09 1.95 c p3
319.85 339.21 1.95 c p3
157.42 336.29 1.95 c p3
244.16 332.34 1.95 c p3
272.75 333.28 1.95 c p3
237.01 338.24 1.95 c p3
252.61 344.20 1.95 c p3
209.73 334.55 1.95 c p3
242.54 340.00 1.95 c p3
212.97 333.00 1.95 c p3
223.04 335.72 1.95 c p3
236.04 343.08 1.95 c p3
206.15 336.49 1.95 c p3
227.27 345.77 1.95 c p3
213.30 336.38 1.95 c p3
244.48 337.44 1.95 c p3
157.42 339.30 1.95 c p3
212.97 339.83 1.95 c p3
157.42 337.79 1.95 c p3
225.32 341.81 1.95 c p3
235.06 335.90 1.95 c p3
207.13 341.36 1.95 c p3
201.60 339.76 1.95 c p3
238.31 328.56 1.95 c p3
244.16 342.53 1.95 c p3
157.42 340.80 1.95 c p3
237.66 348.26 1.95 c p3
282.49 342.82 1.95 c p3
224.02 343.89 1.95 c p3
243.19 345.15 1.95 c p3
230.52 335.19 1.95 c p3
222.39 339.84 1.95 c p3
184.71 338.93 1.95 c p3
213.30 343.30 1.95 c p3
157.42 335.92 1.95 c p3
0.00 0.00 504.00 504.00 cl
141.18 286.29 498.52 317.47 cl
0.9216 0.9216 0.9216 srgb
0.53 setlinewidth
[] 0 setdash
0 setlinecap
1 setlinejoin
10.00 setmiterlimit
np
189.91 286.29 m
0 31.18 l
o
np
254.88 286.29 m
0 31.18 l
o
np
319.85 286.29 m
0 31.18 l
o
np
384.82 286.29 m
0 31.18 l
o
np
449.79 286.29 m
0 31.18 l
o
1.07 setlinewidth
[] 0 setdash
np
141.18 301.88 m
357.34 0 l
o
np
157.42 286.29 m
0 31.18 l
o
np
222.39 286.29 m
0 31.18 l
o
np
287.37 286.29 m
0 31.18 l
o
np
352.34 286.29 m
0 31.18 l
o
np
417.31 286.29 m
0 31.18 l
o
np
482.28 286.29 m
0 31.18 l
o
0 0 1 srgb
2.56 setlinewidth
[] 0 setdash
np
253.58 286.29 m
0 31.18 l
o
/bg { 0 0 0 srgb } def
0 0 0 srgb
0.71 setlinewidth
[] 0 setdash
1 setlinecap
277.29 300.60 1.95 c p3
251.96 303.31 1.95 c p3
307.83 301.22 1.95 c p3
270.47 298.54 1.95 c p3
255.53 305.29 1.95 c p3
353.64 302.60 1.95 c p3
228.89 303.32 1.95 c p3
247.73 305.06 1.95 c p3
263.65 303.61 1.95 c p3
241.56 300.77 1.95 c p3
266.25 305.62 1.95 c p3
239.94 304.94 1.95 c p3
245.46 292.19 1.95 c p3
228.24 297.73 1.95 c p3
251.63 295.48 1.95 c p3
157.42 301.88 1.95 c p3
246.11 297.33 1.95 c p3
220.45 300.66 1.95 c p3
229.54 306.32 1.95 c p3
238.64 306.63 1.95 c p3
265.60 301.63 1.95 c p3
324.72 302.17 1.95 c p3
221.74 303.33 1.95 c p3
242.21 309.96 1.95 c p3
248.71 309.86 1.95 c p3
334.14 301.66 1.95 c p3
280.22 303.00 1.95 c p3
274.05 301.98 1.95 c p3
252.93 299.75 1.95 c p3
234.74 302.70 1.95 c p3
247.73 299.97 1.95 c p3
235.39 299.38 1.95 c p3
261.05 299.80 1.95 c p3
229.22 300.42 1.95 c p3
245.46 302.53 1.95 c p3
231.82 296.36 1.95 c p3
246.11 307.73 1.95 c p3
247.41 294.82 1.95 c p3
239.29 296.96 1.95 c p3
0.00 0.00 504.00 504.00 cl
141.18 249.62 498.52 280.81 cl
0.9216 0.9216 0.9216 srgb
0.53 setlinewidth
[] 0 setdash
0 setlinecap
1 setlinejoin
10.00 setmiterlimit
np
189.91 249.62 m
0 31.19 l
o
np
254.88 249.62 m
0 31.19 l
o
np
319.85 249.62 m
0 31.19 l
o
np
384.82 249.62 m
0 31.19 l
o
np
449.79 249.62 m
0 31.19 l
o
1.07 setlinewidth
[] 0 setdash
np
141.18 265.22 m
357.34 0 l
o
np
157.42 249.62 m
0 31.19 l
o
np
222.39 249.62 m
0 31.19 l
o
np
287.37 249.62 m
0 31.19 l
o
np
352.34 249.62 m
0 31.19 l
o
np
417.31 249.62 m
0 31.19 l
o
np
482.28 249.62 m
0 31.19 l
o
0 0 1 srgb
2.56 setlinewidth
[] 0 setdash
np
260.08 249.62 m
0 31.19 l
o
/bg { 0 0 0 srgb } def
0 0 0 srgb
0.71 setlinewidth
[] 0 setdash
1 setlinecap
157.42 265.22 1.95 c p3
305.23 266.90 1.95 c p3
433.87 265.48 1.95 c p3
302.96 265.33 1.95 c p3
273.72 256.53 1.95 c p3
296.79 264.97 1.95 c p3
265.60 261.65 1.95 c p3
294.84 261.08 1.95 c p3
401.06 264.80 1.95 c p3
354.29 266.21 1.95 c p3
301.01 272.42 1.95 c p3
237.99 272.04 1.95 c p3
331.22 263.75 1.95 c p3
280.54 268.16 1.95 c p3
233.44 260.07 1.95 c p3
302.96 261.81 1.95 c p3
304.26 260.33 1.95 c p3
217.20 262.80 1.95 c p3
193.81 265.74 1.95 c p3
234.41 267.65 1.95 c p3
260.40 268.06 1.95 c p3
203.23 268.16 1.95 c p3
203.88 262.30 1.95 c p3
239.61 266.80 1.95 c p3
236.04 263.69 1.95 c p3
205.83 264.66 1.95 c p3
252.61 273.22 1.95 c p3
197.71 263.48 1.95 c p3
260.73 263.00 1.95 c p3
243.51 268.80 1.95 c p3
242.21 260.55 1.95 c p3
157.42 263.51 1.95 c p3
189.26 267.78 1.95 c p3
251.31 264.70 1.95 c p3
184.71 264.60 1.95 c p3
207.45 268.88 1.95 c p3
233.11 269.36 1.95 c p3
264.30 256.45 1.95 c p3
253.91 256.69 1.95 c p3
204.53 266.94 1.95 c p3
265.60 272.03 1.95 c p3
256.18 270.16 1.95 c p3
262.03 273.25 1.95 c p3
157.42 266.93 1.95 c p3
294.84 268.86 1.95 c p3
240.59 271.00 1.95 c p3
190.88 261.96 1.95 c p3
230.52 262.44 1.95 c p3
273.72 266.11 1.95 c p3
237.99 258.39 1.95 c p3
277.62 261.56 1.95 c p3
271.45 264.29 1.95 c p3
229.22 265.58 1.95 c p3
282.17 263.91 1.95 c p3
302.63 258.22 1.95 c p3
292.89 270.77 1.95 c p3
316.28 264.66 1.95 c p3
278.92 270.45 1.95 c p3
328.95 266.52 1.95 c p3
254.23 265.49 1.95 c p3
348.76 264.53 1.95 c p3
344.54 265.48 1.95 c p3
259.43 258.06 1.95 c p3
303.93 268.70 1.95 c p3
157.42 262.65 1.95 c p3
289.96 263.05 1.95 c p3
254.88 260.99 1.95 c p3
265.60 259.05 1.95 c p3
279.57 259.50 1.95 c p3
272.10 274.10 1.95 c p3
264.95 266.84 1.95 c p3
269.82 269.31 1.95 c p3
282.17 272.25 1.95 c p3
240.26 262.58 1.95 c p3
157.42 266.07 1.95 c p3
289.64 266.90 1.95 c p3
285.74 259.04 1.95 c p3
0.00 0.00 504.00 504.00 cl
141.18 212.96 498.52 244.14 cl
0.9216 0.9216 0.9216 srgb
0.53 setlinewidth
[] 0 setdash
0 setlinecap
1 setlinejoin
10.00 setmiterlimit
np
189.91 212.96 m
0 31.18 l
o
np
254.88 212.96 m
0 31.18 l
o
np
319.85 212.96 m
0 31.18 l
o
np
384.82 212.96 m
0 31.18 l
o
np
449.79 212.96 m
0 31.18 l
o
1.07 setlinewidth
[] 0 setdash
np
141.18 228.55 m
357.34 0 l
o
np
157.42 212.96 m
0 31.18 l
o
np
222.39 212.96 m
0 31.18 l
o
np
287.37 212.96 m
0 31.18 l
o
np
352.34 212.96 m
0 31.18 l
o
np
417.31 212.96 m
0 31.18 l
o
np
482.28 212.96 m
0 31.18 l
o
0 0 1 srgb
2.56 setlinewidth
[] 0 setdash
np
276.97 212.96 m
0 31.18 l
o
/bg { 0 0 0 srgb } def
0 0 0 srgb
0.71 setlinewidth
[] 0 setdash
1 setlinecap
157.42 228.55 1.95 c p3
204.85 227.39 1.95 c p3
282.17 219.85 1.95 c p3
249.36 235.88 1.95 c p3
275.67 223.71 1.95 c p3
280.54 226.28 1.95 c p3
268.20 232.88 1.95 c p3
249.36 220.70 1.95 c p3
282.49 230.16 1.95 c p3
263.65 225.57 1.95 c p3
188.28 228.24 1.95 c p3
223.04 228.76 1.95 c p3
348.11 227.21 1.95 c p3
276.32 234.05 1.95 c p3
197.06 229.77 1.95 c p3
263.33 230.33 1.95 c p3
265.60 235.21 1.95 c p3
279.24 231.47 1.95 c p3
272.42 228.87 1.95 c p3
250.98 224.70 1.95 c p3
231.17 227.42 1.95 c p3
297.76 224.58 1.95 c p3
359.81 227.69 1.95 c p3
277.94 221.08 1.95 c p3
298.09 234.34 1.95 c p3
253.91 231.43 1.95 c p3
289.31 232.53 1.95 c p3
236.04 226.19 1.95 c p3
252.28 222.33 1.95 c p3
313.68 225.28 1.95 c p3
302.31 227.11 1.95 c p3
482.28 229.80 1.95 c p3
319.85 228.42 1.95 c p3
257.48 226.80 1.95 c p3
319.85 232.48 1.95 c p3
482.28 226.77 1.95 c p3
315.95 231.10 1.95 c p3
308.16 230.24 1.95 c p3
257.48 236.13 1.95 c p3
482.28 229.19 1.95 c p3
157.42 226.53 1.95 c p3
157.42 230.57 1.95 c p3
271.45 218.75 1.95 c p3
310.43 226.56 1.95 c p3
300.03 222.25 1.95 c p3
233.76 230.68 1.95 c p3
251.96 233.61 1.95 c p3
157.42 225.53 1.95 c p3
260.08 220.95 1.95 c p3
296.79 219.67 1.95 c p3
249.36 229.07 1.95 c p3
157.42 229.56 1.95 c p3
287.37 235.06 1.95 c p3
288.34 222.70 1.95 c p3
357.21 228.58 1.95 c p3
303.28 236.17 1.95 c p3
300.36 231.84 1.95 c p3
294.19 237.41 1.95 c p3
297.44 229.47 1.95 c p3
270.47 237.98 1.95 c p3
281.84 236.62 1.95 c p3
285.74 225.10 1.95 c p3
289.64 227.63 1.95 c p3
247.08 227.61 1.95 c p3
265.60 223.10 1.95 c p3
242.86 230.71 1.95 c p3
304.58 221.74 1.95 c p3
268.52 227.93 1.95 c p3
312.05 233.31 1.95 c p3
0.00 0.00 504.00 504.00 cl
141.18 176.29 498.52 207.48 cl
0.9216 0.9216 0.9216 srgb
0.53 setlinewidth
[] 0 setdash
0 setlinecap
1 setlinejoin
10.00 setmiterlimit
np
189.91 176.29 m
0 31.19 l
o
np
254.88 176.29 m
0 31.19 l
o
np
319.85 176.29 m
0 31.19 l
o
np
384.82 176.29 m
0 31.19 l
o
np
449.79 176.29 m
0 31.19 l
o
1.07 setlinewidth
[] 0 setdash
np
141.18 191.88 m
357.34 0 l
o
np
157.42 176.29 m
0 31.19 l
o
np
222.39 176.29 m
0 31.19 l
o
np
287.37 176.29 m
0 31.19 l
o
np
352.34 176.29 m
0 31.19 l
o
np
417.31 176.29 m
0 31.19 l
o
np
482.28 176.29 m
0 31.19 l
o
0 0 1 srgb
2.56 setlinewidth
[] 0 setdash
np
241.89 176.29 m
0 31.19 l
o
/bg { 0 0 0 srgb } def
0 0 0 srgb
0.71 setlinewidth
[] 0 setdash
1 setlinecap
157.42 191.88 1.95 c p3
308.81 189.38 1.95 c p3
303.93 185.78 1.95 c p3
271.45 193.41 1.95 c p3
243.51 192.31 1.95 c p3
202.58 190.16 1.95 c p3
157.42 186.69 1.95 c p3
157.42 197.08 1.95 c p3
157.42 184.09 1.95 c p3
246.11 187.09 1.95 c p3
268.85 198.39 1.95 c p3
213.62 193.35 1.95 c p3
285.09 187.06 1.95 c p3
291.26 191.37 1.95 c p3
157.42 194.48 1.95 c p3
257.48 194.22 1.95 c p3
268.85 185.38 1.95 c p3
157.42 189.29 1.95 c p3
157.42 199.68 1.95 c p3
240.26 185.83 1.95 c p3
265.60 190.42 1.95 c p3
245.13 195.76 1.95 c p3
157.42 182.79 1.95 c p3
157.42 193.18 1.95 c p3
157.42 187.99 1.95 c p3
393.59 191.68 1.95 c p3
304.26 192.08 1.95 c p3
287.37 195.61 1.95 c p3
295.81 199.11 1.95 c p3
157.42 198.38 1.95 c p3
216.55 191.37 1.95 c p3
338.04 189.88 1.95 c p3
347.46 192.51 1.95 c p3
284.12 189.20 1.95 c p3
284.77 197.79 1.95 c p3
222.39 195.91 1.95 c p3
244.16 188.90 1.95 c p3
330.57 193.47 1.95 c p3
0.00 0.00 504.00 504.00 cl
23.47 322.95 141.18 354.14 cl
/Font1 findfont 9 s
0.1020 0.1020 0.1020 srgb
82.32 340.07 (Urban) .5 0 t
27.81 330.56 (\(146 staff from 6 progr) 0 ta
-0.090 (ams\)) tb gr
23.47 322.95 141.18 354.14 cl
23.47 322.95 141.18 354.14 cl
23.47 322.95 141.18 354.14 cl
0.00 0.00 504.00 504.00 cl
23.47 286.29 141.18 317.47 cl
/Font1 findfont 9 s
0.1020 0.1020 0.1020 srgb
82.32 303.40 (Semi-Urban) .5 0 t
30.31 293.90 (\(39 staff from 6 progr) 0 ta
-0.090 (ams\)) tb gr
23.47 286.29 141.18 317.47 cl
23.47 286.29 141.18 317.47 cl
23.47 286.29 141.18 317.47 cl
0.00 0.00 504.00 504.00 cl
23.47 249.62 141.18 280.81 cl
/Font1 findfont 9 s
0.1020 0.1020 0.1020 srgb
37.43 266.74 (Densely-Settled Rur) 0 ta
-0.090 (al) tb gr
30.31 257.23 (\(77 staff from 8 progr) 0 ta
-0.090 (ams\)) tb gr
23.47 249.62 141.18 280.81 cl
23.47 249.62 141.18 280.81 cl
23.47 249.62 141.18 280.81 cl
0.00 0.00 504.00 504.00 cl
23.47 212.96 141.18 244.14 cl
/Font1 findfont 9 s
0.1020 0.1020 0.1020 srgb
71.57 230.07 (Rur) 0 ta
-0.090 (al) tb gr
30.31 220.57 (\(69 staff from 8 progr) 0 ta
-0.090 (ams\)) tb gr
23.47 212.96 141.18 244.14 cl
23.47 212.96 141.18 244.14 cl
23.47 212.96 141.18 244.14 cl
0.00 0.00 504.00 504.00 cl
23.47 176.29 141.18 207.48 cl
/Font1 findfont 9 s
0.1020 0.1020 0.1020 srgb
82.32 193.41 (Frontier) .5 0 t
30.31 183.90 (\(38 staff from 3 progr) 0 ta
-0.090 (ams\)) tb gr
23.47 176.29 141.18 207.48 cl
23.47 176.29 141.18 207.48 cl
23.47 176.29 141.18 207.48 cl
0.00 0.00 504.00 504.00 cl
0.00 0.00 504.00 504.00 cl
0.00 0.00 504.00 504.00 cl
0.00 0.00 504.00 504.00 cl
0.00 0.00 504.00 504.00 cl
0.00 0.00 504.00 504.00 cl
0.00 0.00 504.00 504.00 cl
0.00 0.00 504.00 504.00 cl
0.00 0.00 504.00 504.00 cl
0.00 0.00 504.00 504.00 cl
/Font1 findfont 9 s
0.3020 0.3020 0.3020 srgb
157.42 164.90 (0%) .5 0 t
222.39 164.90 (20%) .5 0 t
287.37 164.90 (40%) .5 0 t
352.34 164.90 (60%) .5 0 t
417.31 164.90 (80%) .5 0 t
482.28 164.90 (100%) .5 0 t
0.00 0.00 504.00 504.00 cl
0.00 0.00 504.00 504.00 cl
0.00 0.00 504.00 504.00 cl
0.00 0.00 504.00 504.00 cl
0.00 0.00 504.00 504.00 cl
0.00 0.00 504.00 504.00 cl
0.00 0.00 504.00 504.00 cl
0.00 0.00 504.00 504.00 cl
0.00 0.00 504.00 504.00 cl
0.00 0.00 504.00 504.00 cl
0.00 0.00 504.00 504.00 cl
0.00 0.00 504.00 504.00 cl
0.00 0.00 504.00 504.00 cl
0.00 0.00 504.00 504.00 cl
0.00 0.00 504.00 504.00 cl
0.00 0.00 504.00 504.00 cl
0.00 0.00 504.00 504.00 cl
0.00 0.00 504.00 504.00 cl
0.00 0.00 504.00 504.00 cl
0.00 0.00 504.00 504.00 cl
0.00 0.00 504.00 504.00 cl
0.00 0.00 504.00 504.00 cl
0.00 0.00 504.00 504.00 cl
0.00 0.00 504.00 504.00 cl
0.00 0.00 504.00 504.00 cl
0.00 0.00 504.00 504.00 cl
0.00 0.00 504.00 504.00 cl
0.00 0.00 504.00 504.00 cl
0.00 0.00 504.00 504.00 cl
0.00 0.00 504.00 504.00 cl
0.00 0.00 504.00 504.00 cl
0.00 0.00 504.00 504.00 cl
0.00 0.00 504.00 504.00 cl
0.00 0.00 504.00 504.00 cl
0.00 0.00 504.00 504.00 cl
0.00 0.00 504.00 504.00 cl
0.00 0.00 504.00 504.00 cl
0.00 0.00 504.00 504.00 cl
0.00 0.00 504.00 504.00 cl
0.00 0.00 504.00 504.00 cl
0.00 0.00 504.00 504.00 cl
0.00 0.00 504.00 504.00 cl
0.00 0.00 504.00 504.00 cl
0.00 0.00 504.00 504.00 cl
0.00 0.00 504.00 504.00 cl
0.00 0.00 504.00 504.00 cl
0.00 0.00 504.00 504.00 cl
0.00 0.00 504.00 504.00 cl
0.00 0.00 504.00 504.00 cl
0.00 0.00 504.00 504.00 cl
0.00 0.00 504.00 504.00 cl
0.00 0.00 504.00 504.00 cl
0.00 0.00 504.00 504.00 cl
0.00 0.00 504.00 504.00 cl
0.00 0.00 504.00 504.00 cl
0.00 0.00 504.00 504.00 cl
0.00 0.00 504.00 504.00 cl
0.00 0.00 504.00 504.00 cl
0.00 0.00 504.00 504.00 cl
0.00 0.00 504.00 504.00 cl
0.00 0.00 504.00 504.00 cl
0.00 0.00 504.00 504.00 cl
0.00 0.00 504.00 504.00 cl
0.00 0.00 504.00 504.00 cl
0.00 0.00 504.00 504.00 cl
0.00 0.00 504.00 504.00 cl
0.00 0.00 504.00 504.00 cl
0.00 0.00 504.00 504.00 cl
0.00 0.00 504.00 504.00 cl
0.00 0.00 504.00 504.00 cl
0.00 0.00 504.00 504.00 cl
0.00 0.00 504.00 504.00 cl
0.00 0.00 504.00 504.00 cl
0.00 0.00 504.00 504.00 cl
0.00 0.00 504.00 504.00 cl
0.00 0.00 504.00 504.00 cl
0.00 0.00 504.00 504.00 cl
0.00 0.00 504.00 504.00 cl
0.00 0.00 504.00 504.00 cl
0.00 0.00 504.00 504.00 cl
0.00 0.00 504.00 504.00 cl
0.00 0.00 504.00 504.00 cl
0.00 0.00 504.00 504.00 cl
0.00 0.00 504.00 504.00 cl
0.00 0.00 504.00 504.00 cl
0.00 0.00 504.00 504.00 cl
0.00 0.00 504.00 504.00 cl
0.00 0.00 504.00 504.00 cl
0.00 0.00 504.00 504.00 cl
0.00 0.00 504.00 504.00 cl
0.00 0.00 504.00 504.00 cl
0.00 0.00 504.00 504.00 cl
0.00 0.00 504.00 504.00 cl
0.00 0.00 504.00 504.00 cl
ep
%%Trailer
%%Pages: 1
%%EOF
